{
    "Московская область": [
        "г. Балашиха",
        "г. Щёлково",
        "г. Ног. нск",
        "г. Коломна",
        "г. Серпухов",
        "г. Королёв",
        "г. Москва"
    ],
    "Тульская область": [
        "г. Тула",
        "г. Алексин",
        "г. Новомосковск",
        "г. Ефремов"
    ],
    "Владимирская область": [
        "г. Владимир",
        "г. Александров",
        "г. Ковров",
        "г. Муром"

    ],
    "Ярославская область": [
        "г. Ярославль",
        "г. Рыбинск"
    ],
    "Рязанская область": [
        "г. Рязань",
        "г. Михайлов",
        "г. Ряжск"

    ]
}
